{
  "swagger" : "2.0",
  "info" : {
    "title" : "Task1",
    "version" : "1.0.0",
    "description" : "Task1"
  },
  "paths" : {
    "/post" : {
      "post" : {
        "operationId" : "postPost",
        "responses" : {
          "200" : {
            "description" : "The operation was successful.",
            "schema" : {
              "$ref" : "#/definitions/AddResponse"
            }
          }
        },
        "consumes" : [ "application/json" ],
        "produces" : [ "application/json" ],
        "description" : "Insert a post",
        "parameters" : [ {
          "name" : "body",
          "in" : "body",
          "schema" : {
            "$ref" : "#/definitions/AddRequest"
          },
          "description" : "The request body for the operation",
          "required" : true
        } ]
      }
    }
  },
  "basePath" : "/task1/v1",
  "definitions" : {
    "AddRequest" : {
      "type" : "object",
      "properties" : {
        "param1" : {
          "type" : "string"
        },
        "param2" : {
          "type" : "string"
        },
        "param3" : {
          "type" : "string"
        },
        "param4" : {
          "type" : "string"
        }
      }
    },
    "AddResponse" : {
      "type" : "object",
      "properties" : {
        "res" : {
          "type" : "string"
        }
      }
    }
  }
}